what is the dimension of $X$ ?	$Y$
what is the dimension of $X$ ?	$Y$
how wide is $X$ ?	$Y$
how wide is $X$ ?	$Y$
is the size of $X$ $Y$ ?	yes
is the size of $X$ $Y$ ?	yes
how long is $X$ ?	$Y$
how long is $X$ ?	$Y$
how is $X$ ?	$Y$
how is $X$ ?	$Y$
how high is $X$ ?	$Y$
how high is $X$ ?	$Y$
what is the size of $X$ ?	$Y$
what is the size of $X$ ?	$Y$
what size is $X$ ?	$Y$
what size is $X$ ?	$Y$
is $Y$ the size of $X$ ?	yes
is $Y$ the size of $X$ ?	yes
how carat is $X$ ?	$Y$
how carat is $X$ ?	$Y$
is $X$ $Y$ ?	yes
is $X$ $Y$ ?	yes
how big is $X$ ?	$Y$
how big is $X$ ?	$Y$
what is the dimension of $X$ ?	yes
what is the dimension of $X$ ?	yes
how big is the $X$ ?	$Y$
how big is the $X$ ?	$Y$
is $X$ $Y$ ?	no
is $X$ $Y$ ?	no
how long was $X$ ?	$Y$
how long was $X$ ?	$Y$
