Can you $Y$ a $X$ ?
Do you $Y$ a $X$ ?
How can I use $X$ ?
How do you use a $X$ ?
How do you use $X$ ?
How is supposed to be used $X$ ?
How to use $X$ ?
How would you use $X$ ?
Is $X$ used by $Y$ ?
Is $X$ used for $Y$ ?
Is $Y$ a correct way to use $X$ ?
Is $Y$ the use of $X$ ?
What can you do with a $X$ ?
What do you do with $X$ ?
What do you use $X$ for ?
What is the best way to use $X$ ?
What is $X$ used for ?
What $X$ is used for ?
when did $X$ happen ?
Where is $X$ used ?
Which is the correct way to use $X$ ?
