does $X$ smell like $Y$ ?	no
does $X$ smell like $Y$ ?	no
is the smell of $X$ similar to the smell of $Y$ ?	yes
is the smell of $X$ similar to the smell of $Y$ ?	yes
is the smell of $X$ $Y$ ?	yes
is the smell of $X$ $Y$ ?	yes
can $X$ smell $Y$ ?	yes
can $X$ smell $Y$ ?	yes
can $X$ smell $Y$ ?	no
can $X$ smell $Y$ ?	no
is the smell of $X$ similar to the smell of $Y$ ?	no
is the smell of $X$ similar to the smell of $Y$ ?	no
what does smell like $X$ ?	$Y$
what does smell like $X$ ?	$Y$ smell like $X$
does $X$ smell like $Y$ ?	yes
does $X$ smell like $Y$ ?	yes
