are $X$ used for $Y$ ? 	yes 
are $X$ used to $Y$ ? 	yes 
can $X$ be used for $Y$ ? 	yes 
can $X$ be used to $Y$ ? 	yes 
can i use $X$ for $Y$ ? 	yes 
can i use $X$ to $Y$ ? 	yes 
can you use $X$ for $Y$ ? 	yes 
is $X$ used for $Y$ ? 	yes 
is $X$ used to $Y$ ? 	yes 
what can $X$ be used for ? 	$Y$ 
what can $X$ be used to ? 	$Y$ 
what can i use $X$ for ? 	$Y$ 
what is one possible purpose of $X$ ? 	$Y$ 
