how big is $X$ ? 	$Y$ 
is $X$ $Y$ ? 	yes 
is $X$ $Y$ or decreased ? 	$Y$ 
is $X$ increased or $Y$ ? 	$Y$ 
is $Y$ the size of $X$ ? 	yes 
is the size of $X$ $Y$ ? 	yes 
what is size of $X$ ? 	$Y$ 
what is the size of $X$ ? 	$Y$ 
