does $X$ sound like $Y$ ?	no
does $X$ sound like $Y$ ?	no
how is the sound of $X$ like ?	$Y$
how is the sound of $X$ like ?	the sound of $X$ is $Y$
how is the sound of $X$ ?	$Y$
how is the sound of $X$ ?	the sound of $X$ is $Y$
does $X$ sound $Y$ ?	yes
does $X$ sound $Y$ ?	yes
what is the sound of $X$ ?	$Y$
what is the sound of $X$ ?	the sound of $X$ is $Y$
does $X$ sound like $Y$ ?	yes
does $X$ sound like $Y$ ?	yes
what sound is emitted by $X$ ?	$Y$
what sound is emitted by $X$ ?	$Y$ is the sound emitted by $X$
does $X$ emit a $Y$ ?	yes
does $X$ emit a $Y$ ?	yes
is $X$ sound $Y$ ?	yes
is $Y$ the sound of $X$ ?	yes
how is $X$ sound like ?	$Y$
how is $X$ sound like ?	the sound of $X$ is $Y$
