What material is/are this/these X made up of?	Material
What material is/are this/these X made from?	Material
What material is/are this/these X made out of?	Material
What material can X be made up of?	Material
What material can X be made from?	Material
What material can X be made out of?	Material
When did X take place?	Time
On which date was X held?	Time
Was X held on Y?	Time
When did X die?	Time
Did X die on Y?	Time
Did X die in Y?	Time
What is/are/was X part of?	Part
What did X become part of?	Part
What is/are X contained in?	Part
What do/does X belong to?	Part
Is X in Y?	Place
Where is X?	Place
Where is X located?	Place
Where is the city of X?	Place
Where is the city of X located?	Place
Where is the town of X?	Place
Where is the town of X located?	Place
Where is the village of X?	Place
Where is the village of X located?	Place
What is X a type of?	Specialization
What is X a species of?	Specialization
Is X a type of Y?	Specialization
