is X Y? y/n	colorPattern
does X look Y? y/n	colorPattern
what color is X? Y	colorPattern
what colour is X? Y	colorPattern
is X used to Y? y/n	purpose
what is the purpose of X? Y	purpose
what purpose does X have? Y	purpose
what does X smell like? Y	smell
is the smell of X Y? y/n	smell
does X smell like Y? y/n	smell
does X sound Y? y/n	sound
what sound does X produce? Y	sound
what does X sound like? Y	sound
does X taste Y? y/n	taste
what does X taste like? Y	taste
is X Y? y/n	taste
