What X is able to do?	activity
Is X able to Y?	activity
Can X play?	activity
What color is X?	colorPattern
Is Y the color of X?	colorPattern
Can X be red?	colorPattern
Can X be blue?	colorPattern
What is the size of X?	size
Is X Y in size?	size
Can X be compact?	size
What is X?	generalization
Is X an Y?	generalization
Is X an antivirus software?	generalization
Is X a train?	generalization
Is X a graph?	generalization
Is X an Olympic sport?	generalization
What X is used for?	purpose
Is X used to Y?	purpose
Is X used for transportation?	purpose
